…
Our GAM + LASSO model has a lower cross-validated MAE, RMSE, and a higher R-Squared value than our OLS model. This means that the magnitude of the residuals is smaller for the GAM + LASSO model, and it also accounts for 80.417% of the variation in the median value of Boston owner-occupied homes per census tract compared to the OLS model’s 72.103%.

### Residual Plots

<img src="/project/2022-04-25-housingprices/BostonHomeValues_files/figure-html/unnamed-chunk-12-1.png" width="672" />

Our OLS model generally does a good job of predicting the median home values for Boston census tracts. However, we can see that our OLS model begins to underpredict median home values as they increase past 35,000 USD. From our GAM residual plot, we can see that the magnitude of the residuals is much smaller, especially for median home values that are greater than 35,000 USD.

### Slope Coefficient Interpreations

    ## # A tibble: 27 × 5
    ##    term        estimate std.error statistic  p.value
    ##    <chr>          <dbl>     <dbl>     <dbl>    <dbl>
    ##  1 (Intercept) 60.4       3.68       16.4   1.98e-48
    ##  2 chas1        1.17      0.677       1.73  8.34e- 2
    ##  3 crim        -0.138     0.0251     -5.50  6.24e- 8
    ##  4 ptratio     -0.562     0.0942     -5.96  4.90e- 9
    ##  5 b            0.00364   0.00213     1.71  8.88e- 2
    ##  6 rm_ns_1     -1.85      2.47       -0.748 4.55e- 1
    ##  7 rm_ns_2     -1.02      2.67       -0.383 7.02e- 1
    ##  8 rm_ns_3     -1.88      2.60       -0.723 4.70e- 1
    ##  9 rm_ns_4     -1.86      2.61       -0.712 4.77e- 1
    ## 10 rm_ns_5      9.68      2.00        4.83  1.84e- 6
    ## # … with 17 more rows
    ## # ℹ Use `print(n = ...)` to see more rows
…
